Get a list of tibble containing parish-level UK census data — map_parish_stats • coeparishdata
…
nomis_codes
The nomis code for the data required must be a length-one character.

...
Arguments passed to parish_stats()

    Value

    A list of tibbles

    Examples

map_parish_stats(c("TS004", "TS001"))
#> [[1]]
#> # A tibble: 12,246 × 10
#>    parish_code population country_of_birth_united_kingdom country_of_birth_eur…¹
#>    <chr>            <dbl>                           <dbl>                  <dbl>
#>  1 100001              61                            50.9                   3.52
#>  2 100004            9815                          9103.                  394.  
#>  3 100006            9656                          9013.                  290.  
#>  4 100007            3582                          3271.                  144.  
#>  5 100009             121                           105.                   11.9 
#>  6 100010           13239                          9763.                 2622.  
#>  7 100011             175                           154.                   10.2 
#>  8 100012            1681                          1545.                   58.2 
#>  9 100014            9843                          9141.                  369.  
#> 10 100015            6217                          5832.                  161.  
#> # ℹ 12,236 more rows
#> # ℹ abbreviated name: ¹​country_of_birth_europe_eu_countries
#> # ℹ 6 more variables: country_of_birth_europe_non_eu_countries <dbl>,
#> #   country_of_birth_africa <dbl>, country_of_birth_middle_east_and_asia <dbl>,
#> #   country_of_birth_the_americas_and_the_caribbean <dbl>,
#> #   country_of_birth_antarctica_and_oceania_including_australasia_and_other <dbl>,
#> #   country_of_birth_british_overseas <dbl>
#> 
#> [[2]]
#> # A tibble: 12,246 × 4
#>    parish_code population lives_in_a_household lives_in_a_communal_establishment
#>    <chr>            <dbl>                <dbl>                             <dbl>
#>  1 100001              61                 50.2                             10.8 
#>  2 100004            9815               9767.                              48.4 
#>  3 100006            9656               9626.                              29.8 
#>  4 100007            3582               3505.                              76.9 
#>  5 100009             121                112.                               9.09
#>  6 100010           13239              12477.                             762.  
#>  7 100011             175                175                                0   
#>  8 100012            1681               1445.                             236.  
#>  9 100014            9843               9625.                             218.  
#> 10 100015            6217               6101.                             116.  
#> # ℹ 12,236 more rows
…
